<?xml version="1.0" encoding="UTF-8" standalone="no"?>
<!-- Created with Inkscape (http://www.inkscape.org/) -->

<svg
   xmlns:dc="http://purl.org/dc/elements/1.1/"
   xmlns:cc="http://creativecommons.org/ns#"
   xmlns:rdf="http://www.w3.org/1999/02/22-rdf-syntax-ns#"
   xmlns:svg="http://www.w3.org/2000/svg"
   xmlns="http://www.w3.org/2000/svg"
   version="1.1"
   width="209.99982"
   height="49.998508"
   id="svg2">
  <defs
     id="defs4" />
  <metadata
     id="metadata7">
    <rdf:RDF>
      <cc:Work
         rdf:about="">
        <dc:format>image/svg+xml</dc:format>
        <dc:type
           rdf:resource="http://purl.org/dc/dcmitype/StillImage" />
        <dc:title></dc:title>
      </cc:Work>
    </rdf:RDF>
  </metadata>
  <g
     transform="translate(-138.02499,-191.21132)"
     id="layer1">
    <text
       x="149.75249"
       y="216.71861"
       id="text2996"
       xml:space="preserve"
       style="font-size:40px;font-style:normal;font-variant:normal;font-weight:normal;font-stretch:normal;line-height:125%;letter-spacing:0px;word-spacing:0px;fill:#000000;fill-opacity:1;stroke:none;font-family:Signika Negative;-inkscape-font-specification:Signika Negative"><tspan
         x="149.75249"
         y="216.71861"
         id="tspan2998" /></text>
    <g
       id="text3000"
       style="font-size:40px;font-style:italic;font-variant:normal;font-weight:normal;font-stretch:normal;line-height:125%;letter-spacing:0px;word-spacing:0px;fill:#ffffff;fill-opacity:1;stroke:none;font-family:Roboto;-inkscape-font-specification:Roboto Italic">
      <path
         d="m 149.5135,203.09917 3.63282,23.08593 0.0976,0.0195 12.8711,-23.10547 4.80468,0 -5.68359,28.4375 -3.76953,0 2.24609,-11.25 2.61719,-11.19141 -0.0977,-0.0391 -12.87109,22.48047 -2.5,0 -3.86719,-22.42188 -0.11718,0 -1.85547,11.17188 -2.2461,11.25 -3.76953,0 5.6836,-28.4375 4.82421,0"
         id="path3790" />
      <path
         d="m 183.3221,231.53667 c -2e-5,-0.63802 0.013,-1.15886 0.0391,-1.5625 0.026,-0.41667 0.0716,-0.83984 0.13672,-1.26953 -0.87241,0.92448 -1.87501,1.69922 -3.00781,2.32421 -1.1198,0.61198 -2.24611,0.91797 -3.37891,0.91797 -1.92709,0 -3.35287,-0.57291 -4.27734,-1.71875 -0.91146,-1.15885 -1.16537,-2.70182 -0.76172,-4.6289 0.41666,-2.14843 1.47135,-3.7565 3.16406,-4.82422 1.70572,-1.08072 3.88671,-1.62108 6.54297,-1.6211 l 3.61328,0 0.41016,-2.08984 c 0.2604,-1.31509 0.11717,-2.31118 -0.42969,-2.98828 -0.54689,-0.69009 -1.45835,-1.03514 -2.73438,-1.03516 -1.09376,2e-5 -2.08334,0.32554 -2.96875,0.97657 -0.88542,0.63803 -1.41276,1.38673 -1.58203,2.24609 l -3.57422,0 -0.0391,-0.11719 c 0.26041,-1.62759 1.23698,-3.05337 2.92969,-4.27734 1.6927,-1.23696 3.71093,-1.85545 6.05469,-1.85547 2.09634,2e-5 3.74998,0.62502 4.96093,1.875 1.22394,1.237 1.61457,2.97528 1.17188,5.21484 l -2.03125,10.17578 c -0.16929,0.79428 -0.28648,1.52996 -0.35156,2.20704 -0.0651,0.67708 -0.0651,1.36067 0,2.05078 l -3.88672,0 m -5,-2.8125 c 1.05468,0 2.12889,-0.30599 3.22265,-0.91797 1.09374,-0.61198 1.9401,-1.33463 2.53907,-2.16797 l 0.78125,-3.88672 -3.73047,0 c -1.28907,1e-5 -2.44793,0.39715 -3.47656,1.19141 -1.02866,0.79428 -1.64064,1.70573 -1.83594,2.73437 -0.20834,1.00261 -0.11068,1.76433 0.29297,2.28516 0.40364,0.50781 1.13931,0.76172 2.20703,0.76172"
         id="path3792" />
      <path
         d="m 200.78304,228.93901 c 1.11978,0 2.18748,-0.39713 3.20312,-1.19141 1.02863,-0.79426 1.6341,-1.7578 1.81641,-2.89062 l 3.3789,0 0.0391,0.11719 c -0.26044,1.90104 -1.27606,3.54167 -3.04688,4.92187 -1.77085,1.36719 -3.72397,2.05078 -5.85937,2.05078 -2.76043,0 -4.77214,-1.01562 -6.03516,-3.04687 -1.26302,-2.03125 -1.65365,-4.53776 -1.17188,-7.51953 l 0.13672,-0.82032 c 0.48177,-3.11196 1.63411,-5.64451 3.45703,-7.59765 1.83593,-1.96613 4.20572,-2.9492 7.10938,-2.94922 2.23957,2e-5 3.99087,0.7357 5.25391,2.20703 1.27602,1.45835 1.71873,3.24871 1.32812,5.37109 l -0.0391,0.0977 -3.41797,0 c 0.22134,-1.35415 -2e-5,-2.46743 -0.66406,-3.33984 -0.66408,-0.87238 -1.64064,-1.30858 -2.92969,-1.3086 -1.77084,2e-5 -3.1836,0.7357 -4.23828,2.20703 -1.0547,1.47137 -1.7448,3.2422 -2.07031,5.3125 l -0.13672,0.82032 c -0.35157,2.23959 -0.26043,4.0625 0.27343,5.46875 0.53385,1.39323 1.73828,2.08984 3.61329,2.08984"
         id="path3794" />
      <path
         d="m 219.47444,212.96245 c 0.87239,-0.9505 1.83593,-1.67967 2.89063,-2.1875 1.06769,-0.50779 2.19399,-0.7617 3.3789,-0.76172 1.97915,2e-5 3.45051,0.69012 4.41407,2.07031 0.96352,1.38023 1.17185,3.45054 0.625,6.21094 l -2.65625,13.24219 -3.76954,0 2.65625,-13.28125 c 0.36457,-1.84895 0.29296,-3.16405 -0.21484,-3.94532 -0.50783,-0.78123 -1.45835,-1.17185 -2.85156,-1.17187 -0.87241,2e-5 -1.75783,0.26043 -2.65625,0.78125 -0.89845,0.50783 -1.70574,1.19142 -2.42188,2.05078 l -3.10547,15.56641 -3.76953,0 6.09375,-30.46875 3.76953,0 -2.38281,11.89453"
         id="path3796" />
    </g>
    <g
       transform="translate(-25,-13.613861)"
       id="text3004"
       style="font-size:72px;font-style:normal;font-variant:normal;font-weight:normal;font-stretch:normal;line-height:125%;letter-spacing:0px;word-spacing:0px;fill:#f26800;fill-opacity:1;stroke:none;font-family:Roboto;-inkscape-font-specification:Roboto">
      <path
         d="m 372.02014,247.89862 -1.66834,5.61507 -118.75353,-0.20101 35.35156,-41.73828 -122.96484,0 2,-5.44922 132.875,0 -35.45704,41.77344"
         id="path3009"
         style="fill:#f26800;fill-opacity:1" />
    </g>
    <g
       id="text3011"
       style="font-size:40px;font-style:italic;font-variant:normal;font-weight:normal;font-stretch:normal;line-height:125%;letter-spacing:0px;word-spacing:0px;fill:#ffffff;fill-opacity:1;stroke:none;font-family:Roboto;-inkscape-font-specification:Roboto Italic">
      <path
         d="m 262.02481,220.77495 c 0.52083,-3.2552 1.71224,-5.85936 3.57422,-7.8125 1.87499,-1.96613 4.18619,-2.9492 6.93359,-2.94922 2.6302,2e-5 4.59634,1.02216 5.89844,3.06641 1.31509,2.03126 1.72524,4.59636 1.23047,7.69531 l -0.0586,0.42969 c -0.53388,3.26823 -1.7383,5.87891 -3.61329,7.83203 -1.86199,1.9401 -4.16667,2.91015 -6.91406,2.91015 -2.63021,0 -4.60287,-1.01562 -5.91797,-3.04687 -1.30208,-2.03125 -1.69922,-4.59635 -1.1914,-7.69531 l 0.0586,-0.42969 m 3.71094,0.42969 c -0.37761,2.33073 -0.26693,4.20573 0.33203,5.625 0.61197,1.40625 1.77082,2.10937 3.47656,2.10937 1.58853,0 2.9427,-0.73567 4.0625,-2.20703 1.11978,-1.48437 1.85546,-3.32682 2.20703,-5.52734 l 0.0586,-0.42969 c 0.36456,-2.29166 0.24087,-4.15363 -0.3711,-5.58594 -0.61199,-1.43227 -1.75782,-2.14842 -3.4375,-2.14844 -1.60157,2e-5 -2.96225,0.74221 -4.08203,2.22657 -1.10678,1.48439 -1.83594,3.32032 -2.1875,5.50781 l -0.0586,0.42969"
         id="path3799" />
      <path
         d="m 294.87637,231.53667 0.33203,-2.89063 c -0.83334,1.08073 -1.78386,1.90104 -2.85156,2.46094 -1.0547,0.5599 -2.21355,0.83984 -3.47656,0.83984 -2.01824,0 -3.51563,-0.74869 -4.49219,-2.24609 -0.96354,-1.49739 -1.13932,-3.77604 -0.52734,-6.83594 l 2.48047,-12.46094 3.76953,0 -2.5,12.5 c -0.48178,2.39584 -0.50782,3.98438 -0.0781,4.76563 0.42968,0.76823 1.29557,1.15235 2.59766,1.15234 1.15884,1e-5 2.20702,-0.28645 3.14453,-0.85937 0.95051,-0.57291 1.75129,-1.36718 2.40234,-2.38281 l 3.02735,-15.17579 3.76953,0 -4.21875,21.13282 -3.37891,0"
         id="path3801" />
      <path
         d="m 310.87247,213.31401 c 0.85936,-1.06769 1.82941,-1.88149 2.91015,-2.44141 1.09374,-0.57289 2.26561,-0.85935 3.51563,-0.85937 1.99217,2e-5 3.47003,0.6771 4.43359,2.03125 0.96352,1.35418 1.17186,3.40496 0.625,6.15234 l -2.67578,13.33985 -3.76953,0 2.65625,-13.26172 c 0.39061,-1.97915 0.33852,-3.32681 -0.15625,-4.04297 -0.49481,-0.72915 -1.45835,-1.09373 -2.89063,-1.09375 -0.91147,2e-5 -1.81641,0.27997 -2.71484,0.83984 -0.89845,0.5469 -1.68621,1.28257 -2.36328,2.20703 l -3.06641,15.35157 -3.76953,0 4.21875,-21.13282 3.37891,0 -0.33203,2.91016"
         id="path3803" />
      <path
         d="m 326.30215,220.97026 c 0.71615,-3.6328 1.86198,-6.36717 3.4375,-8.20312 1.58854,-1.83592 3.6263,-2.75389 6.11329,-2.75391 1.08071,2e-5 2.05727,0.22789 2.92968,0.68359 0.8854,0.44273 1.60806,1.07424 2.16797,1.89453 l 2.30469,-11.52343 3.76953,0 -6.09375,30.46875 -3.24219,0 0.13672,-2.03125 c -0.78126,0.80729 -1.64715,1.41927 -2.59765,1.83593 -0.93751,0.40365 -1.95314,0.60547 -3.04688,0.60547 -2.26563,0 -3.97787,-1.01562 -5.13672,-3.04687 -1.14583,-2.03125 -1.41927,-4.53776 -0.82031,-7.51953 l 0.0781,-0.41016 m 3.71094,0.41016 c -0.45573,2.23959 -0.3711,4.04297 0.25391,5.41015 0.62499,1.35417 1.79687,2.03126 3.51562,2.03125 0.92447,1e-5 1.75129,-0.2539 2.48047,-0.76172 0.74218,-0.52082 1.41926,-1.2565 2.03125,-2.20703 l 1.99219,-9.98047 c -0.33856,-0.83331 -0.85288,-1.49737 -1.54297,-1.99218 -0.6771,-0.49478 -1.52345,-0.74217 -2.53906,-0.74219 -1.56251,2e-5 -2.85808,0.70965 -3.88672,2.12891 -1.01563,1.40626 -1.75782,3.3073 -2.22656,5.70312 l -0.0781,0.41016"
         id="path3805" />
    </g>
  </g>
</svg>
