<?xml version="1.0" encoding="UTF-8" standalone="no"?>
<!-- Created with Inkscape (http://www.inkscape.org/) -->

<svg
   xmlns:dc="http://purl.org/dc/elements/1.1/"
   xmlns:cc="http://creativecommons.org/ns#"
   xmlns:rdf="http://www.w3.org/1999/02/22-rdf-syntax-ns#"
   xmlns:svg="http://www.w3.org/2000/svg"
   xmlns="http://www.w3.org/2000/svg"
   xmlns:sodipodi="http://sodipodi.sourceforge.net/DTD/sodipodi-0.dtd"
   xmlns:inkscape="http://www.inkscape.org/namespaces/inkscape"
   version="1.1"
   width="214.03896"
   height="60.657318"
   id="svg2"
   inkscape:version="0.48.4 r9939"
   sodipodi:docname="logo.svg">
  <defs
     id="defs14" />
  <sodipodi:namedview
     pagecolor="#ffffff"
     bordercolor="#666666"
     borderopacity="1"
     objecttolerance="10"
     gridtolerance="10"
     guidetolerance="10"
     inkscape:pageopacity="0"
     inkscape:pageshadow="2"
     inkscape:window-width="1920"
     inkscape:window-height="1018"
     id="namedview12"
     showgrid="false"
     fit-margin-top="2"
     fit-margin-left="2"
     fit-margin-bottom="2"
     fit-margin-right="2"
     inkscape:zoom="4.22"
     inkscape:cx="109.09482"
     inkscape:cy="13.848138"
     inkscape:window-x="0"
     inkscape:window-y="23"
     inkscape:window-maximized="1"
     inkscape:current-layer="svg2" />
  <metadata
     id="metadata7">
    <rdf:RDF>
      <cc:Work
         rdf:about="">
        <dc:format>image/svg+xml</dc:format>
        <dc:type
           rdf:resource="http://purl.org/dc/dcmitype/StillImage" />
        <dc:title />
      </cc:Work>
    </rdf:RDF>
  </metadata>
  <g
     transform="translate(-134.73724,-188.65874)"
     id="layer1"
     style="fill:#d45500">
    <text
       x="149.75249"
       y="216.71861"
       id="text2996"
       xml:space="preserve"
       style="font-size:40px;font-style:normal;font-variant:normal;font-weight:normal;font-stretch:normal;line-height:125%;letter-spacing:0px;word-spacing:0px;fill:#d45500;fill-opacity:1;stroke:none;font-family:Signika Negative;-inkscape-font-specification:Signika Negative"
       sodipodi:linespacing="125%"><tspan
         x="149.75249"
         y="216.71861"
         id="tspan2998"
         style="fill:#d45500" /></text>
    <g
       id="text3000"
       style="font-size:40px;font-style:italic;font-variant:normal;font-weight:normal;font-stretch:normal;line-height:125%;letter-spacing:0px;word-spacing:0px;fill:#d45500;fill-opacity:1;stroke:none;font-family:Roboto;-inkscape-font-specification:Roboto Italic" />
    <g
       transform="translate(-25,-13.613861)"
       id="text3004"
       style="font-size:72px;font-style:normal;font-variant:normal;font-weight:normal;font-stretch:normal;line-height:125%;letter-spacing:0px;word-spacing:0px;fill:#d45500;fill-opacity:1;stroke:none;font-family:Roboto;-inkscape-font-specification:Roboto">
      <path
         d="m 371.77619,254.02353 c -1.08024,2.32815 -2.2465,4.63018 -3.49513,6.90639 -33.88406,-5.89398 -68.18056,-9.81906 -102.6199,-10.33303 -5.47841,-0.0818 -10.96045,-0.0749 -16.4417,0.0245 5.18955,-4.61849 12.88763,-11.02545 18.6089,-15.45307 6.68527,-5.17645 13.39738,-10.38921 19.43183,-15.98565 -6.50937,0.20175 -13.02584,0.30691 -19.54477,0.31429 -35.55973,0.04 -71.17128,-2.77881 -105.97818,-8.70845 1.29403,-2.20877 2.67821,-4.38037 4.1458,-6.51591 33.3663,7.61897 67.53758,11.15432 101.74576,11.02652 10.39369,-0.0388 20.79088,-0.41562 31.1699,-1.11852 -8.8599,9.80637 -20.18776,18.16634 -31.00988,26.5339 -1.57099,1.21417 -5.13024,4.42929 -6.66776,5.65017"
         id="path3009"
         style="fill:#d45500;fill-opacity:1"
         inkscape:connector-curvature="0"
         sodipodi:nodetypes="ccscccsccsccc" />
    </g>
    <g
       id="text3011"
       style="font-size:40px;font-style:italic;font-variant:normal;font-weight:normal;font-stretch:normal;line-height:125%;letter-spacing:0px;word-spacing:0px;fill:#d45500;fill-opacity:1;stroke:none;font-family:Roboto;-inkscape-font-specification:Roboto Italic" />
  </g>
  <path
     d="m 81.60474,19.014369 c -2.960436,7.331252 -5.395602,14.794892 -6.833587,22.438297 1.228591,-0.05055 2.45731,-0.09866 3.686156,-0.144238 0.761925,-3.848025 1.758742,-7.654447 2.927737,-11.425505 0.729054,-0.623772 1.561242,-1.123909 2.4603,-1.485736 0.41038,-0.169352 0.81612,-0.299082 1.217081,-0.389618 0.478554,-0.107971 0.950339,-0.160228 1.415605,-0.157402 1.366405,0.0083 2.277987,0.281244 2.754925,0.839468 0.476905,0.558247 0.516553,1.50907 0.127916,2.82651 -0.942879,3.154492 -1.798385,6.327249 -2.52291,9.52218 1.229567,-0.03315 2.459298,-0.06309 3.689156,-0.08957 0.75931,-3.15659 1.629097,-6.294801 2.564555,-9.418795 0.578214,-1.952474 0.423574,-3.417567 -0.479831,-4.39974 -0.903443,-0.982146 -2.333568,-1.480122 -4.264736,-1.501078 -1.098927,-0.0119 -2.152453,0.131864 -3.170348,0.449943 -0.05297,0.01657 -0.105844,0.03361 -0.158621,0.05112 -1.053044,0.353862 -2.014263,0.870462 -2.908973,1.553315 0.945849,-2.866949 1.984531,-5.713893 3.087257,-8.54352 -1.197342,-0.03858 -2.394575,-0.08045 -3.591682,-0.125629 z m 119.02699,-4.491653 c -0.0895,4.069869 -0.31078,8.118919 -0.68127,12.1447 -0.60551,-0.826395 -1.3398,-1.424506 -2.22238,-1.835713 -0.87168,-0.425295 -1.82698,-0.610242 -2.84757,-0.554366 -2.3486,0.128659 -4.14502,1.156481 -5.48808,3.053524 -1.33074,1.896615 -2.21019,4.653958 -2.82732,8.251438 -0.0273,0.134099 -0.0549,0.26815 -0.0827,0.40215 -0.52777,2.950782 -0.35139,5.399599 0.66523,7.453955 1.02921,2.054758 2.64,3.16542 4.84767,3.237249 1.06576,0.03468 2.05307,-0.162328 2.98329,-0.554722 0.94344,-0.405447 1.80411,-0.996229 2.5815,-1.822216 -0.0576,0.69976 -0.1202,1.399378 -0.18778,2.098853 1.05483,0.02012 2.10973,0.03652 3.16468,0.04921 2.29781,-10.58946 3.41468,-21.353789 3.67443,-32.2476 -1.19309,0.108758 -2.38631,0.216631 -3.57964,0.323538 -2e-5,2e-6 -4e-5,3e-6 -5e-5,4e-6 z M 11.558039,14.843424 C 6.9464364,24.921389 4.2647471,35.438083 3.7818207,46.445885 4.9956473,46.336274 6.2095861,46.227318 7.4236377,46.119107 7.6253933,41.874258 8.1622685,37.703561 9.0175856,33.603768 9.7505899,29.526996 10.799178,25.510437 12.14925,21.551682 c 0.02999,0.0024 0.05999,0.0049 0.08998,0.0073 -0.26349,8.133328 0.792517,16.090313 3.046971,23.870748 0.809695,-0.06972 1.61944,-0.13902 2.429236,-0.207878 3.185521,-8.13234 7.672589,-15.548847 13.049646,-22.393307 0.02667,0.02163 0.05334,0.04324 0.08003,0.06484 -1.456954,3.477834 -2.669539,7.017775 -3.615917,10.6236 -0.814712,3.625004 -1.359668,7.306839 -1.616629,11.048471 1.215194,-0.09854 2.430505,-0.195886 3.645931,-0.29195 0.713996,-9.230163 3.20612,-18.090802 7.166488,-26.629352 -1.525225,-0.144442 -3.049829,-0.293813 -4.573769,-0.448105 -5.929744,6.874902 -10.995244,14.323947 -14.755576,22.494612 -0.03104,-0.0094 -0.06208,-0.01876 -0.09312,-0.02815 -1.598176,-7.915566 -1.935019,-15.99542 -0.890057,-24.238778 -1.518941,-0.188448 -3.037096,-0.38188 -4.554428,-0.580313 z m 35.703371,9.723961 c -2.269985,-0.09552 -4.282894,0.336941 -6.065575,1.370538 -1.781226,1.022112 -2.8829,2.285321 -3.248224,3.748218 0.0073,0.03769 0.01465,0.07538 0.02202,0.113065 1.158221,0.01617 2.316811,0.0315 3.475761,0.04603 0.21999,-0.755677 0.805624,-1.40938 1.723103,-1.945933 0.918584,-0.547891 1.912706,-0.793614 2.977089,-0.76468 1.241751,0.03379 2.11139,0.34787 2.590059,0.941848 0.479665,0.583006 0.523931,1.429909 0.204906,2.537371 -0.166079,0.578961 -0.325384,1.159301 -0.477787,1.741037 -1.172861,0.0049 -2.34539,0.0096 -3.517581,0.01383 -2.599216,0.0095 -4.773047,0.488837 -6.457805,1.478265 -1.671835,0.977612 -2.706729,2.486471 -3.025588,4.470974 -0.315242,1.781207 0.04916,3.191924 1.047155,4.190456 1.009438,0.985804 2.469312,1.393567 4.343234,1.255126 1.101552,-0.08138 2.156101,-0.44972 3.188398,-1.055073 1.043718,-0.617534 1.978979,-1.33568 2.768335,-2.170991 -0.03451,0.37088 -0.06563,0.746751 -0.05731,1.105042 0.0072,0.347144 0.04662,0.793606 0.108438,1.340151 1.257121,-0.08432 2.51437,-0.166802 3.771747,-0.247357 -0.126578,-0.574136 -0.183369,-1.157269 -0.168346,-1.727874 0.01499,-0.5706 0.105603,-1.203267 0.231463,-1.874195 0.492954,-2.85781 1.156002,-5.681877 1.973636,-8.474199 0.53578,-1.847238 0.281951,-3.279136 -0.789458,-4.341429 -1.057534,-1.072707 -2.58732,-1.664757 -4.617667,-1.750226 z m 19.766265,0.671975 c -2.821271,-0.0738 -5.236639,0.608195 -7.174079,2.137534 -1.923783,1.519258 -3.220236,3.554718 -3.733573,6.08125 -0.04456,0.228319 -0.08808,0.456794 -0.130574,0.685424 -0.489742,2.424489 0.01,4.447729 1.363207,6.027755 1.353249,1.58003 3.402874,2.279594 6.090122,2.133658 2.078799,-0.112893 3.909414,-0.750815 5.568479,-1.864478 1.65836,-1.123582 2.609952,-2.375482 2.832992,-3.811979 -0.02117,-0.03087 -0.04233,-0.06175 -0.06348,-0.09263 -1.104736,0.02566 -2.209263,0.0522 -3.313579,0.07957 -0.158217,0.869049 -0.718571,1.609623 -1.694431,2.256623 -0.963134,0.646552 -1.968499,1.019629 -3.063273,1.065984 -1.833135,0.07762 -3.065787,-0.420977 -3.642886,-1.508772 -0.577618,-1.098132 -0.724828,-2.55379 -0.367479,-4.339933 0.05266,-0.224418 0.106289,-0.448657 0.160876,-0.672718 0.345031,-1.648702 1.087566,-3.053659 2.198258,-4.201134 1.110674,-1.147449 2.555237,-1.677823 4.284302,-1.650627 1.258635,0.01982 2.159775,0.371286 2.764022,1.042104 0.604216,0.670845 0.794695,1.517183 0.537631,2.545773 1.114425,-0.0013 2.22912,-0.0027 3.34408,-0.0044 0.01137,-0.03123 0.02275,-0.06245 0.03415,-0.09367 0.443113,-1.590046 0.109508,-2.904476 -1.045236,-4.021507 -1.141265,-1.126608 -2.773512,-1.736881 -4.949533,-1.79383 z m 67.345645,0.446381 c -0.59269,0.0017 -1.16254,0.03852 -1.71005,0.110028 -1.93639,0.2545 -3.58638,0.942075 -4.98426,2.053851 -1.78003,1.416207 -2.9146,3.281773 -3.46919,5.617063 -0.0224,0.104672 -0.0449,0.209324 -0.0675,0.313956 -0.54568,2.22208 -0.24611,4.063539 0.93041,5.582528 1.18928,1.519502 3.01557,2.36749 5.57509,2.525778 0.57612,0.03563 1.13689,0.03832 1.68241,0.0071 1.98611,-0.113712 3.77685,-0.677091 5.326,-1.735551 1.9884,-1.358215 3.33432,-3.309655 3.92261,-5.819344 0.0233,-0.11211 0.0463,-0.224262 0.0691,-0.336456 0.5352,-2.382037 0.0638,-4.395322 -1.32019,-5.973721 -1.37193,-1.588305 -3.377,-2.352397 -5.95444,-2.345211 z m 42.96503,-0.614549 c -1.18204,0.04183 -2.2456,0.33596 -3.2244,0.901132 -0.96777,0.552674 -1.80402,1.35527 -2.54,2.351183 0.0273,-0.905538 0.0405,-1.812589 0.0397,-2.721126 -1.06424,0.02843 -2.12857,0.05477 -3.19297,0.07899 -0.34425,3.578591 -0.91961,7.110655 -1.74056,10.5923 -0.66055,2.787701 -1.47767,5.543425 -2.45261,8.26629 0.60677,0.05559 1.21356,0.110491 1.82039,0.164584 0.61608,0.05492 1.23228,0.108561 1.84858,0.160933 1.56007,-4.555165 2.69269,-9.196937 3.43045,-13.916644 0.60071,-0.850179 1.31394,-1.518164 2.12804,-2.037819 0.8132,-0.531764 1.65074,-0.814667 2.51363,-0.83101 1.35595,-0.02564 2.28323,0.30076 2.80176,0.990408 0.51761,0.677218 0.65841,1.963073 0.35135,3.858872 -0.69795,4.24063 -1.67061,8.430088 -2.94037,12.563159 1.22482,0.08131 2.44996,0.157606 3.67539,0.22888 1.23371,-4.235837 2.17795,-8.524622 2.85592,-12.861299 0.41872,-2.678669 0.0526,-4.689406 -0.97963,-5.975521 -1.0323,-1.286076 -2.51087,-1.879933 -4.39472,-1.813316 z m -29.48505,0.860376 c -0.46495,3.353547 -1.19025,6.653679 -2.14998,9.903682 -0.70507,2.392784 -0.72478,4.193902 0.0676,5.459847 0.80501,1.267006 2.16667,2.011989 4.12515,2.203863 1.22562,0.120076 2.37891,-2.71e-4 3.46813,-0.367427 1.10184,-0.365954 2.14083,-0.972388 3.04917,-1.818164 -0.2007,0.808777 -0.41576,1.61561 -0.64507,2.420502 1.0916,0.106337 2.18311,0.212426 3.27461,0.317511 2.22031,-5.9257 3.65801,-12.018003 4.30303,-18.271793 -1.20206,0.01957 -2.40618,0.03695 -3.61238,0.05242 -0.47084,4.391903 -1.35138,8.700383 -2.63036,12.925012 -0.69315,0.81837 -1.53707,1.421727 -2.50896,1.826875 -0.95927,0.406154 -2.01843,0.56801 -3.14495,0.474242 -1.26577,-0.105354 -2.06649,-0.489839 -2.4227,-1.14235 -0.35515,-0.663022 -0.21531,-1.948026 0.33945,-3.860989 0.96037,-3.327121 1.6706,-6.707685 2.11088,-10.143878 -1.20574,0.0081 -2.41359,0.01487 -3.62357,0.02065 z m -13.79328,2.023802 c 1.65673,0.01244 2.81827,0.567549 3.45982,1.665814 0.64152,1.09829 0.79772,2.509138 0.40282,4.238457 -0.0228,0.110135 -0.0458,0.220233 -0.0691,0.330293 -0.38801,1.659313 -1.21408,3.02247 -2.40117,4.077112 -0.86252,0.759648 -1.83135,1.217299 -2.8933,1.378032 -0.39843,0.06045 -0.81017,0.07906 -1.23546,0.0562 -1.67299,-0.0899 -2.75531,-0.669737 -3.29481,-1.72023 -0.52609,-1.059467 -0.58041,-2.424071 -0.17142,-4.113832 0.0228,-0.105798 0.0455,-0.21162 0.068,-0.317467 0.37609,-1.58674 1.08612,-2.909062 2.15281,-3.987965 0.77925,-0.778667 1.68396,-1.275775 2.72172,-1.488566 0.40065,-0.08172 0.82071,-0.121144 1.26012,-0.117851 z m 61.45213,-0.493192 c 0.96018,-0.04216 1.80527,0.182165 2.48679,0.665321 0.69381,0.482649 1.22102,1.126692 1.60093,1.980019 -0.39398,3.488851 -0.90446,6.959677 -1.54254,10.41075 -0.58733,0.984858 -1.24953,1.720643 -1.97575,2.249338 -0.71344,0.515432 -1.51026,0.78337 -2.40428,0.767693 -1.66215,-0.02914 -2.78232,-0.743776 -3.35455,-2.116763 -0.57196,-1.386082 -0.62431,-3.185982 -0.23398,-5.43772 0.0271,-0.136166 0.054,-0.272377 0.0806,-0.408633 0.39151,-2.410214 0.97787,-4.353611 1.84252,-5.807 0.87607,-1.466921 2.02296,-2.238092 3.50018,-2.303003 2e-5,-1e-6 3e-5,-1e-6 5e-5,-2e-6 z M 44.258511,34.64541 c 1.213747,-0.02083 2.427824,-0.04162 3.642227,-0.06231 -0.258819,1.099868 -0.492705,2.204848 -0.700808,3.315056 -0.556067,0.731642 -1.34007,1.375279 -2.372057,1.956627 -1.032008,0.581356 -2.051818,0.925059 -3.081235,0.981802 -1.042142,0.05745 -1.792695,-0.14435 -2.220297,-0.577909 -0.428471,-0.445191 -0.559295,-1.1228 -0.396034,-2.02826 0.149469,-0.928265 0.737109,-1.749416 1.736228,-2.47603 0.999106,-0.726598 2.129772,-1.087307 3.391976,-1.108979 z"
     id="text3405"
     style="font-size:40px;font-style:italic;font-variant:normal;font-weight:normal;font-stretch:normal;line-height:125%;letter-spacing:0px;word-spacing:0px;fill:#ffffff;fill-opacity:1;stroke:none;font-family:Roboto;-inkscape-font-specification:Roboto Italic"
     inkscape:connector-curvature="0" />
</svg>
